Introduction to APIs in R – JHU Data Services Data Dispatches
…
Now we can use map_dfr() to iterate over each response and extract the results.

pokemon_names <-
  purrr::map_dfr(responses, function(response) {
    body <- httr2::resp_body_json(response)
    purrr::map_dfr(body$results, tibble::as_tibble)
  })

pokemon_names

# A tibble: 100 × 2
   name       url                                  
   <chr>      <chr>                                
 1 bulbasaur  https://pokeapi.co/api/v2/pokemon/1/ 
 2 ivysaur    https://pokeapi.co/api/v2/pokemon/2/ 
 3 venusaur   https://pokeapi.co/api/v2/pokemon/3/ 
 4 charmander https://pokeapi.co/api/v2/pokemon/4/ 
 5 charmeleon https://pokeapi.co/api/v2/pokemon/5/ 
 6 charizard  https://pokeapi.co/api/v2/pokemon/6/ 
 7 squirtle   https://pokeapi.co/api/v2/pokemon/7/ 
 8 wartortle  https://pokeapi.co/api/v2/pokemon/8/ 
 9 blastoise  https://pokeapi.co/api/v2/pokemon/9/ 
10 caterpie   https://pokeapi.co/api/v2/pokemon/10/
# ℹ 90 more rows
…
